45194171|VDR|10|1|Supplier delay
70168|HBG|5|2|Late Order
45200791|VDR|10|1|Capacity
45201477|VDR|10|2|Late order
45194115|VDR|10|1|Capacity
45195735|VDR|10|2|Late Order
45204664|VDR|10|1|Wrong Specs
70504|HBG|1|2|Wrong Specs
45197489|VDR|10|1|Wrong Specs
71452|HBG|1|2|Late Order
69652|HBG|1|1|Wrong Specs
71430|HBG|1|2|Late Order
45202932|VDR|10|2|late order
45193946|VDR|10|2|wrong email
